{
	"code":0,
	"msg":null,
	"data":
		{
			"apiVersion":20170913,
			"valid":true,
			"notice":[
				{
					"id":29,
					"title":"新纪元棋牌大厅测试上线！",
					"date":"2018/4/15 12:06:44",
					"content":"博宇国际，博弈天下，誉满全球。"
				}]
		}
}