{
  "listdata": [
    {
      "md5": "e651f6a0709e26542709ec9259d27c58", 
      "name": "389_sp_listen_anyCard.png", 
      "path": "sparrowhz/res/"
    }, 
    {
      "md5": "1bf525fd944923cca13b3bbce3b3fddd", 
      "name": "389_sp_listen_manyCard.png", 
      "path": "sparrowhz/res/"
    }, 
    {
      "md5": "46b2a8794eb2b435717f36478c938823", 
      "name": "MJMain.plist", 
      "path": "sparrowhz/res/"
    }, 
    {
      "md5": "4bdd622c449cbdc7ccf6f80a325e3bc8", 
      "name": "MJMain.png", 
      "path": "sparrowhz/res/"
    }, 
    {
      "md5": "006e56222e1ce42e93726c1126bad1cb", 
      "name": "sp_listenNum.png", 
      "path": "sparrowhz/res/"
    }, 
    {
      "md5": "8ec2be2370a3077c2e7f72772c07fc7e", 
      "name": "sp_listenTimes.png", 
      "path": "sparrowhz/res/"
    }, 
    {
      "md5": "f5b5ff330c191dccda1a02e8926723b3", 
      "name": "tag_num.png", 
      "path": "sparrowhz/res/"
    }, 
    {
      "md5": "579fd31f671d487de2b7c4e0bfe73f8d", 
      "name": "sice_1.png", 
      "path": "sparrowhz/res/Animate_sice_red/"
    }, 
    {
      "md5": "82de7a810194cb1286fbeaadea6c043b", 
      "name": "sice_2.png", 
      "path": "sparrowhz/res/Animate_sice_red/"
    }, 
    {
      "md5": "d5c771e05041f0ea42735438fdd8673e", 
      "name": "sice_3.png", 
      "path": "sparrowhz/res/Animate_sice_red/"
    }, 
    {
      "md5": "b48887c51d748d5498d3ed01aca07fc4", 
      "name": "sice_4.png", 
      "path": "sparrowhz/res/Animate_sice_red/"
    }, 
    {
      "md5": "de4f3d352321571ad831ce00c5429c7a", 
      "name": "sice_5.png", 
      "path": "sparrowhz/res/Animate_sice_red/"
    }, 
    {
      "md5": "cfa4e53d7d135d6e6fc0e7ecf55c02cc", 
      "name": "sice_6.png", 
      "path": "sparrowhz/res/Animate_sice_red/"
    }, 
    {
      "md5": "3272e3ec1f742c55c3aaf8faabada35d", 
      "name": "sice_1.png", 
      "path": "sparrowhz/res/Animate_sice_white/"
    }, 
    {
      "md5": "c32ecde52b8df1cf058ec3c720d88e36", 
      "name": "sice_2.png", 
      "path": "sparrowhz/res/Animate_sice_white/"
    }, 
    {
      "md5": "40c36bab1c3f40f924d8bbc64a83a3a2", 
      "name": "sice_3.png", 
      "path": "sparrowhz/res/Animate_sice_white/"
    }, 
    {
      "md5": "cf56dbd8ed26948ea6ca10ba8ea58d70", 
      "name": "sice_4.png", 
      "path": "sparrowhz/res/Animate_sice_white/"
    }, 
    {
      "md5": "a4d95474c42ba7d4ca5873fa19f43491", 
      "name": "sice_5.png", 
      "path": "sparrowhz/res/Animate_sice_white/"
    }, 
    {
      "md5": "443c6a34f59577bcec35a2c8ecbc4815", 
      "name": "sice_6.png", 
      "path": "sparrowhz/res/Animate_sice_white/"
    }, 
    {
      "md5": "696b9c83f6e89b85e4b88494d819a69f", 
      "name": "card_back.png", 
      "path": "sparrowhz/res/font_big/"
    }, 
    {
      "md5": "aae188ce64e13f5d781e5d43bb6ce494", 
      "name": "card_down.png", 
      "path": "sparrowhz/res/font_big/"
    }, 
    {
      "md5": "9c9438d4868ef5409b51cb1035501e6d", 
      "name": "card_up.png", 
      "path": "sparrowhz/res/font_big/"
    }, 
    {
      "md5": "ed879ab6b867c7e89c80cb1c26c2514b", 
      "name": "font_0_1.png", 
      "path": "sparrowhz/res/font_big/"
    }, 
    {
      "md5": "a8dae7652a2bf8f910ed700460744c97", 
      "name": "font_0_2.png", 
      "path": "sparrowhz/res/font_big/"
    }, 
    {
      "md5": "15268c0eaa2945928ca0af7d11a5d917", 
      "name": "font_0_3.png", 
      "path": "sparrowhz/res/font_big/"
    }, 
    {
      "md5": "5c887490b3b351bbcb57a69e5b82e32e", 
      "name": "font_0_4.png", 
      "path": "sparrowhz/res/font_big/"
    }, 
    {
      "md5": "572cd01f2fffb4a6d98148dbf2616e55", 
      "name": "font_0_5.png", 
      "path": "sparrowhz/res/font_big/"
    }, 
    {
      "md5": "159c24115f63ecfebd5a2c5fb7fb2993", 
      "name": "font_0_6.png", 
      "path": "sparrowhz/res/font_big/"
    }, 
    {
      "md5": "27001d115f91da6eea8114302af0869b", 
      "name": "font_0_7.png", 
      "path": "sparrowhz/res/font_big/"
    }, 
    {
      "md5": "7a7b3577585ff44bdbf2d94980c95bdf", 
      "name": "font_0_8.png", 
      "path": "sparrowhz/res/font_big/"
    }, 
    {
      "md5": "c11ffdd9255812502f6f1bfed2120395", 
      "name": "font_0_9.png", 
      "path": "sparrowhz/res/font_big/"
    }, 
    {
      "md5": "5289be46c51f8d19c7ee803d0c01ea7f", 
      "name": "font_1_1.png", 
      "path": "sparrowhz/res/font_big/"
    }, 
    {
      "md5": "59eecf509a2960c8014b41e7319dc779", 
      "name": "font_1_2.png", 
      "path": "sparrowhz/res/font_big/"
    }, 
    {
      "md5": "ff81c34c26801479b4056ad064115faa", 
      "name": "font_1_3.png", 
      "path": "sparrowhz/res/font_big/"
    }, 
    {
      "md5": "289549f636133ac1d59c069f4c60dc16", 
      "name": "font_1_4.png", 
      "path": "sparrowhz/res/font_big/"
    }, 
    {
      "md5": "b573eb6f58740730d23769827691db29", 
      "name": "font_1_5.png", 
      "path": "sparrowhz/res/font_big/"
    }, 
    {
      "md5": "8b6f8a5790e1119c03ebb1042f21184a", 
      "name": "font_1_6.png", 
      "path": "sparrowhz/res/font_big/"
    }, 
    {
      "md5": "d31086101a7232470fa4abb657e6bdd9", 
      "name": "font_1_7.png", 
      "path": "sparrowhz/res/font_big/"
    }, 
    {
      "md5": "830fe4f5001eaea9c1a3372ed24dca64", 
      "name": "font_1_8.png", 
      "path": "sparrowhz/res/font_big/"
    }, 
    {
      "md5": "6dee2a480367b44e5df5dc95860969aa", 
      "name": "font_1_9.png", 
      "path": "sparrowhz/res/font_big/"
    }, 
    {
      "md5": "a9c9acf4a96dcde1ad09497fd265e75b", 
      "name": "font_2_1.png", 
      "path": "sparrowhz/res/font_big/"
    }, 
    {
      "md5": "e1159598f6ca4ea2bf0da560f3b0f22f", 
      "name": "font_2_2.png", 
      "path": "sparrowhz/res/font_big/"
    }, 
    {
      "md5": "e56f080c2115b009f6c15ba3130368fd", 
      "name": "font_2_3.png", 
      "path": "sparrowhz/res/font_big/"
    }, 
    {
      "md5": "931218d2631e0cbfab2ca664f8525f07", 
      "name": "font_2_4.png", 
      "path": "sparrowhz/res/font_big/"
    }, 
    {
      "md5": "ff932ccf63d972eea0b6699e0210187f", 
      "name": "font_2_5.png", 
      "path": "sparrowhz/res/font_big/"
    }, 
    {
      "md5": "f03891309bb967aba9db0dcfd7327410", 
      "name": "font_2_6.png", 
      "path": "sparrowhz/res/font_big/"
    }, 
    {
      "md5": "082c1408083b4f7860517436fc311650", 
      "name": "font_2_7.png", 
      "path": "sparrowhz/res/font_big/"
    }, 
    {
      "md5": "4e0b7f722f26b41f7e8fe6cdbe5e16cd", 
      "name": "font_2_8.png", 
      "path": "sparrowhz/res/font_big/"
    }, 
    {
      "md5": "129c8348618cba24c0570cc2ee4e330a", 
      "name": "font_2_9.png", 
      "path": "sparrowhz/res/font_big/"
    }, 
    {
      "md5": "b8aef2ba3a87aecf3796f4d06e76a059", 
      "name": "font_3_1.png", 
      "path": "sparrowhz/res/font_big/"
    }, 
    {
      "md5": "1638722523fad7d798487fa51db1bc80", 
      "name": "font_3_2.png", 
      "path": "sparrowhz/res/font_big/"
    }, 
    {
      "md5": "fac2852f7bbe515a391429c794f96ffb", 
      "name": "font_3_3.png", 
      "path": "sparrowhz/res/font_big/"
    }, 
    {
      "md5": "25cdebfd9dbb7baff302c07f086a0479", 
      "name": "font_3_4.png", 
      "path": "sparrowhz/res/font_big/"
    }, 
    {
      "md5": "92798d22ae934524be2e34329aa71c8f", 
      "name": "font_3_5.png", 
      "path": "sparrowhz/res/font_big/"
    }, 
    {
      "md5": "c68a724bfc8578c007e2c3b749dc0904", 
      "name": "font_3_6.png", 
      "path": "sparrowhz/res/font_big/"
    }, 
    {
      "md5": "60e67b6c21a519d2de8241449b0c2a36", 
      "name": "font_3_7.png", 
      "path": "sparrowhz/res/font_big/"
    }, 
    {
      "md5": "0d8576f8cbb72c02670b2d0ce0e8461d", 
      "name": "shade_down.png", 
      "path": "sparrowhz/res/font_big/"
    }, 
    {
      "md5": "82925ff13e3b6ebf28f884683f175fb7", 
      "name": "card_back.png", 
      "path": "sparrowhz/res/font_middle/"
    }, 
    {
      "md5": "fd649f2517fec8503ad695afdda2bb0c", 
      "name": "card_down.png", 
      "path": "sparrowhz/res/font_middle/"
    }, 
    {
      "md5": "5e729fe96c52d3be7b077e92e261c9e7", 
      "name": "card_up.png", 
      "path": "sparrowhz/res/font_middle/"
    }, 
    {
      "md5": "eb475a738ae0dcf5b7330addc51843dd", 
      "name": "font_0_1.png", 
      "path": "sparrowhz/res/font_middle/"
    }, 
    {
      "md5": "dd6a6af9aeb710760ef0805c538422c0", 
      "name": "font_0_2.png", 
      "path": "sparrowhz/res/font_middle/"
    }, 
    {
      "md5": "d730392f89b6937d481f4adf60b55f1c", 
      "name": "font_0_3.png", 
      "path": "sparrowhz/res/font_middle/"
    }, 
    {
      "md5": "1937b76bb44c33fa479323be832fe3a0", 
      "name": "font_0_4.png", 
      "path": "sparrowhz/res/font_middle/"
    }, 
    {
      "md5": "bc076d64b984e3f23743695bbd21c7fa", 
      "name": "font_0_5.png", 
      "path": "sparrowhz/res/font_middle/"
    }, 
    {
      "md5": "c2ed23484d6b1704f80e557fa79c6186", 
      "name": "font_0_6.png", 
      "path": "sparrowhz/res/font_middle/"
    }, 
    {
      "md5": "25218ccefe9f12f953b329129bd3d446", 
      "name": "font_0_7.png", 
      "path": "sparrowhz/res/font_middle/"
    }, 
    {
      "md5": "81e61c7a1ad012ee526258cabf391bf3", 
      "name": "font_0_8.png", 
      "path": "sparrowhz/res/font_middle/"
    }, 
    {
      "md5": "8b367946bcce7f2e511bf97873fadb4c", 
      "name": "font_0_9.png", 
      "path": "sparrowhz/res/font_middle/"
    }, 
    {
      "md5": "5a3cbf2936ca11b3c4361eefba14d50e", 
      "name": "font_1_1.png", 
      "path": "sparrowhz/res/font_middle/"
    }, 
    {
      "md5": "43d889524da75c3192c7c8b8a62d1b87", 
      "name": "font_1_2.png", 
      "path": "sparrowhz/res/font_middle/"
    }, 
    {
      "md5": "629cd2c4d91947acc32c26e9e31c9923", 
      "name": "font_1_3.png", 
      "path": "sparrowhz/res/font_middle/"
    }, 
    {
      "md5": "ba759721f41a5ab2eb35609d1dea1e61", 
      "name": "font_1_4.png", 
      "path": "sparrowhz/res/font_middle/"
    }, 
    {
      "md5": "51b790a2b7f5898960ff4010d115b268", 
      "name": "font_1_5.png", 
      "path": "sparrowhz/res/font_middle/"
    }, 
    {
      "md5": "5fa1dc7fbfcfeb79e9a863efe9997360", 
      "name": "font_1_6.png", 
      "path": "sparrowhz/res/font_middle/"
    }, 
    {
      "md5": "ded5b6d54414b9cc4ffc659f8714677a", 
      "name": "font_1_7.png", 
      "path": "sparrowhz/res/font_middle/"
    }, 
    {
      "md5": "463dcdb566f5a024207208f9d7a4260d", 
      "name": "font_1_8.png", 
      "path": "sparrowhz/res/font_middle/"
    }, 
    {
      "md5": "d7d0374323ea51be2049e2a0f94f51c4", 
      "name": "font_1_9.png", 
      "path": "sparrowhz/res/font_middle/"
    }, 
    {
      "md5": "68a15c141e1103a7b445cc6f6e3e5e22", 
      "name": "font_2_1.png", 
      "path": "sparrowhz/res/font_middle/"
    }, 
    {
      "md5": "df7ee0ea0972e6271ea3e9062990838a", 
      "name": "font_2_2.png", 
      "path": "sparrowhz/res/font_middle/"
    }, 
    {
      "md5": "38b8536b1cde495dd8191afd3dddb7e3", 
      "name": "font_2_3.png", 
      "path": "sparrowhz/res/font_middle/"
    }, 
    {
      "md5": "a14d6144deaa3286b2a96fdec0444144", 
      "name": "font_2_4.png", 
      "path": "sparrowhz/res/font_middle/"
    }, 
    {
      "md5": "48990bd07d284727e571e83649b245c0", 
      "name": "font_2_5.png", 
      "path": "sparrowhz/res/font_middle/"
    }, 
    {
      "md5": "4c2260d6592701a5fe33a27f35d47ffa", 
      "name": "font_2_6.png", 
      "path": "sparrowhz/res/font_middle/"
    }, 
    {
      "md5": "d755f8fd1e36087a715e33a0e1477667", 
      "name": "font_2_7.png", 
      "path": "sparrowhz/res/font_middle/"
    }, 
    {
      "md5": "a07b90d651538442154caa5575f8bbeb", 
      "name": "font_2_8.png", 
      "path": "sparrowhz/res/font_middle/"
    }, 
    {
      "md5": "2c7681d63ba8ec485db1e3c214f5b64d", 
      "name": "font_2_9.png", 
      "path": "sparrowhz/res/font_middle/"
    }, 
    {
      "md5": "639d7a017fb92ca8aefe274b5ecf4d05", 
      "name": "font_3_1.png", 
      "path": "sparrowhz/res/font_middle/"
    }, 
    {
      "md5": "dcac63705c94d689ccb80720adffa265", 
      "name": "font_3_2.png", 
      "path": "sparrowhz/res/font_middle/"
    }, 
    {
      "md5": "2c085a5c115cf584baa1fa0428d0fa24", 
      "name": "font_3_3.png", 
      "path": "sparrowhz/res/font_middle/"
    }, 
    {
      "md5": "b3ee64027a2775f474001102397768f1", 
      "name": "font_3_4.png", 
      "path": "sparrowhz/res/font_middle/"
    }, 
    {
      "md5": "3a3a7877a4a6fff9cacc36f2abbd9854", 
      "name": "font_3_5.png", 
      "path": "sparrowhz/res/font_middle/"
    }, 
    {
      "md5": "91c20dc9c59bd369e53a02b624146b10", 
      "name": "font_3_6.png", 
      "path": "sparrowhz/res/font_middle/"
    }, 
    {
      "md5": "7af9b10d92737371599757edfafcbdbd", 
      "name": "font_3_7.png", 
      "path": "sparrowhz/res/font_middle/"
    }, 
    {
      "md5": "3ac24eba7b2f4cbd1d3df90bc93ac4b5", 
      "name": "shade_down.png", 
      "path": "sparrowhz/res/font_middle/"
    }, 
    {
      "md5": "93888ef03767f71ca97490cf3a97d7d3", 
      "name": "card_back.png", 
      "path": "sparrowhz/res/font_small/"
    }, 
    {
      "md5": "8df1b504384baa91c3ac0233fd9816fe", 
      "name": "card_down.png", 
      "path": "sparrowhz/res/font_small/"
    }, 
    {
      "md5": "5e729fe96c52d3be7b077e92e261c9e7", 
      "name": "card_up.png", 
      "path": "sparrowhz/res/font_small/"
    }, 
    {
      "md5": "487694a36e0b91255ea02facdfd9956b", 
      "name": "card_up1.png", 
      "path": "sparrowhz/res/font_small/"
    }, 
    {
      "md5": "52aea2680bcaad6035a52d277f3c67e1", 
      "name": "font_0_1.png", 
      "path": "sparrowhz/res/font_small/"
    }, 
    {
      "md5": "0bfa65ca55216aacdef067b3dcc94f9a", 
      "name": "font_0_2.png", 
      "path": "sparrowhz/res/font_small/"
    }, 
    {
      "md5": "b63a613070e1f2879413f29b35cc0797", 
      "name": "font_0_3.png", 
      "path": "sparrowhz/res/font_small/"
    }, 
    {
      "md5": "bf22b6a696ca84ea0eefa88102624e87", 
      "name": "font_0_4.png", 
      "path": "sparrowhz/res/font_small/"
    }, 
    {
      "md5": "e9f71964de6424c90ae5ed92e4640dd2", 
      "name": "font_0_5.png", 
      "path": "sparrowhz/res/font_small/"
    }, 
    {
      "md5": "490f28c2d531b0bc3dd6573db0380948", 
      "name": "font_0_6.png", 
      "path": "sparrowhz/res/font_small/"
    }, 
    {
      "md5": "b3490bacf911898ac3b4dec4880b9e6e", 
      "name": "font_0_7.png", 
      "path": "sparrowhz/res/font_small/"
    }, 
    {
      "md5": "e55d25635e75ad5d2c71f5a98d9931ed", 
      "name": "font_0_8.png", 
      "path": "sparrowhz/res/font_small/"
    }, 
    {
      "md5": "9efd34cbf414a2f52cdc5135a894a7ab", 
      "name": "font_0_9.png", 
      "path": "sparrowhz/res/font_small/"
    }, 
    {
      "md5": "7e68b8c16cac1994e14360f77428ce7b", 
      "name": "font_1_1.png", 
      "path": "sparrowhz/res/font_small/"
    }, 
    {
      "md5": "865e573f60b4949f6f61d52aa373df3e", 
      "name": "font_1_2.png", 
      "path": "sparrowhz/res/font_small/"
    }, 
    {
      "md5": "f6bd7f379a31190e4786cb52a711b498", 
      "name": "font_1_3.png", 
      "path": "sparrowhz/res/font_small/"
    }, 
    {
      "md5": "9dce26bc7d8bd2b64f25fb8749cd327d", 
      "name": "font_1_4.png", 
      "path": "sparrowhz/res/font_small/"
    }, 
    {
      "md5": "e115e3360eb1e66abbd86605468edbab", 
      "name": "font_1_5.png", 
      "path": "sparrowhz/res/font_small/"
    }, 
    {
      "md5": "c91abda9e69ad4ccd38b5c6edca6234c", 
      "name": "font_1_6.png", 
      "path": "sparrowhz/res/font_small/"
    }, 
    {
      "md5": "7136c0f747dd5ae831e86150167dc09c", 
      "name": "font_1_7.png", 
      "path": "sparrowhz/res/font_small/"
    }, 
    {
      "md5": "acc442dae682ec60baabb438d60c6a3d", 
      "name": "font_1_8.png", 
      "path": "sparrowhz/res/font_small/"
    }, 
    {
      "md5": "88d058349390546b8cde51ae89a903ee", 
      "name": "font_1_9.png", 
      "path": "sparrowhz/res/font_small/"
    }, 
    {
      "md5": "294d0012257b62b7c3a632ecb18d2ded", 
      "name": "font_2_1.png", 
      "path": "sparrowhz/res/font_small/"
    }, 
    {
      "md5": "b24118051c2e8d2c1410536e88511b0a", 
      "name": "font_2_2.png", 
      "path": "sparrowhz/res/font_small/"
    }, 
    {
      "md5": "7399bda87399afc57859ace7351b6eea", 
      "name": "font_2_3.png", 
      "path": "sparrowhz/res/font_small/"
    }, 
    {
      "md5": "40ab32f86ba799690131e874ab9f9d34", 
      "name": "font_2_4.png", 
      "path": "sparrowhz/res/font_small/"
    }, 
    {
      "md5": "7344d3004f2104f452d5dae5133e5864", 
      "name": "font_2_5.png", 
      "path": "sparrowhz/res/font_small/"
    }, 
    {
      "md5": "98f836bcf0ff20f887b7054a9bfb7aae", 
      "name": "font_2_6.png", 
      "path": "sparrowhz/res/font_small/"
    }, 
    {
      "md5": "c54861e699d9b0650ce846a1de8f2d68", 
      "name": "font_2_7.png", 
      "path": "sparrowhz/res/font_small/"
    }, 
    {
      "md5": "e348823477ae840388321084b41b926a", 
      "name": "font_2_8.png", 
      "path": "sparrowhz/res/font_small/"
    }, 
    {
      "md5": "7fb31f90d60757a8855e6acc4a38ed71", 
      "name": "font_2_9.png", 
      "path": "sparrowhz/res/font_small/"
    }, 
    {
      "md5": "4fa1f506a50d52cee56877cf9d9d5cab", 
      "name": "font_3_1.png", 
      "path": "sparrowhz/res/font_small/"
    }, 
    {
      "md5": "10cb4a07856640b9dcea84a94612b537", 
      "name": "font_3_2.png", 
      "path": "sparrowhz/res/font_small/"
    }, 
    {
      "md5": "27a87414639a4cd2e36e2f15bcef683b", 
      "name": "font_3_3.png", 
      "path": "sparrowhz/res/font_small/"
    }, 
    {
      "md5": "e1a9efcfb6710c67861c1d00075e4b14", 
      "name": "font_3_4.png", 
      "path": "sparrowhz/res/font_small/"
    }, 
    {
      "md5": "e622c5dbfa1818f38a9f3113bfd2df4c", 
      "name": "font_3_5.png", 
      "path": "sparrowhz/res/font_small/"
    }, 
    {
      "md5": "ceb04839c069abb90c7f7b02a01bcc62", 
      "name": "font_3_6.png", 
      "path": "sparrowhz/res/font_small/"
    }, 
    {
      "md5": "6c77a400c218d6e526e0fa6becdf1453", 
      "name": "font_3_7.png", 
      "path": "sparrowhz/res/font_small/"
    }, 
    {
      "md5": "ae8e40e166f9bbddfd72378dd59f9d65", 
      "name": "Player.csb", 
      "path": "sparrowhz/res/font_small/"
    }, 
    {
      "md5": "bee9ad2c2543ec64bf2b19238d991dc0", 
      "name": "shade_down.png", 
      "path": "sparrowhz/res/font_small/"
    }, 
    {
      "md5": "c9e21912fac4194d5982976acc6df8dd", 
      "name": "card_back.png", 
      "path": "sparrowhz/res/font_small_side/"
    }, 
    {
      "md5": "92d8270efd945bc461eaa0b040f261a7", 
      "name": "card_down.png", 
      "path": "sparrowhz/res/font_small_side/"
    }, 
    {
      "md5": "4eb6190571aea57a661ff5fe0a32be57", 
      "name": "font_0_1.png", 
      "path": "sparrowhz/res/font_small_side/"
    }, 
    {
      "md5": "509aa50e31d72d3dab247269c7bd385a", 
      "name": "font_0_2.png", 
      "path": "sparrowhz/res/font_small_side/"
    }, 
    {
      "md5": "c9072577ad1a58ea679a7c95eab6e530", 
      "name": "font_0_3.png", 
      "path": "sparrowhz/res/font_small_side/"
    }, 
    {
      "md5": "39919c13dfd21e341f59ab37f6ab8590", 
      "name": "font_0_4.png", 
      "path": "sparrowhz/res/font_small_side/"
    }, 
    {
      "md5": "2fe0bdc1419f9315fe3ee6bff7e70342", 
      "name": "font_0_5.png", 
      "path": "sparrowhz/res/font_small_side/"
    }, 
    {
      "md5": "668f3542f804cb736525391c12925922", 
      "name": "font_0_6.png", 
      "path": "sparrowhz/res/font_small_side/"
    }, 
    {
      "md5": "84dad366cdd7c7a9e79fe83fbc05513a", 
      "name": "font_0_7.png", 
      "path": "sparrowhz/res/font_small_side/"
    }, 
    {
      "md5": "60eb1f9ca6706ac2fafc888b0cb95c67", 
      "name": "font_0_8.png", 
      "path": "sparrowhz/res/font_small_side/"
    }, 
    {
      "md5": "9e599c42b2e6d3646e644a2e4adbc63a", 
      "name": "font_0_9.png", 
      "path": "sparrowhz/res/font_small_side/"
    }, 
    {
      "md5": "326123aa1eb653c7131e6c4045ef0797", 
      "name": "font_1_1.png", 
      "path": "sparrowhz/res/font_small_side/"
    }, 
    {
      "md5": "8f5805f0f388aca63212c250df619b50", 
      "name": "font_1_2.png", 
      "path": "sparrowhz/res/font_small_side/"
    }, 
    {
      "md5": "841dc0378d547f4019f8a8ff67a0d02a", 
      "name": "font_1_3.png", 
      "path": "sparrowhz/res/font_small_side/"
    }, 
    {
      "md5": "f5d15272c573942c87d1880d2a4b237f", 
      "name": "font_1_4.png", 
      "path": "sparrowhz/res/font_small_side/"
    }, 
    {
      "md5": "cca1590fb1294c9c731f9858d6d938d0", 
      "name": "font_1_5.png", 
      "path": "sparrowhz/res/font_small_side/"
    }, 
    {
      "md5": "0e2e57186f0f0d2d56aeea73f1cab96b", 
      "name": "font_1_6.png", 
      "path": "sparrowhz/res/font_small_side/"
    }, 
    {
      "md5": "fda4390d403d4d6d9f0c731eae7f7875", 
      "name": "font_1_7.png", 
      "path": "sparrowhz/res/font_small_side/"
    }, 
    {
      "md5": "2f4758e9f325aab6d7f81784fd721eb9", 
      "name": "font_1_8.png", 
      "path": "sparrowhz/res/font_small_side/"
    }, 
    {
      "md5": "f0b198e125b8c6ad32c817c3bfa98e93", 
      "name": "font_1_9.png", 
      "path": "sparrowhz/res/font_small_side/"
    }, 
    {
      "md5": "eff0cc81aeabe855b4cb710bc6619f5b", 
      "name": "font_2_1.png", 
      "path": "sparrowhz/res/font_small_side/"
    }, 
    {
      "md5": "a048b1980a7347d3b6b28f37699b4fa5", 
      "name": "font_2_2.png", 
      "path": "sparrowhz/res/font_small_side/"
    }, 
    {
      "md5": "53cf5fc4d80cb31449937fb40c96def5", 
      "name": "font_2_3.png", 
      "path": "sparrowhz/res/font_small_side/"
    }, 
    {
      "md5": "e01110c831bd630b84e1ad6fbbd72f28", 
      "name": "font_2_4.png", 
      "path": "sparrowhz/res/font_small_side/"
    }, 
    {
      "md5": "e5f5e0c6343139ce51e28975692022c8", 
      "name": "font_2_5.png", 
      "path": "sparrowhz/res/font_small_side/"
    }, 
    {
      "md5": "f69aa5da359eadec2bdca097924067a3", 
      "name": "font_2_6.png", 
      "path": "sparrowhz/res/font_small_side/"
    }, 
    {
      "md5": "6723b661aeeb8c4e8fbb1188173f78f3", 
      "name": "font_2_7.png", 
      "path": "sparrowhz/res/font_small_side/"
    }, 
    {
      "md5": "5a3b8a0c688d8fd999954bc405b05770", 
      "name": "font_2_8.png", 
      "path": "sparrowhz/res/font_small_side/"
    }, 
    {
      "md5": "7d09797f0e4961bfce3c27b5e6885373", 
      "name": "font_2_9.png", 
      "path": "sparrowhz/res/font_small_side/"
    }, 
    {
      "md5": "61016eddeda5169074e89fc17a34dd6d", 
      "name": "font_3_1.png", 
      "path": "sparrowhz/res/font_small_side/"
    }, 
    {
      "md5": "560e4b425bcc0947ba4a34e95e25bf74", 
      "name": "font_3_2.png", 
      "path": "sparrowhz/res/font_small_side/"
    }, 
    {
      "md5": "bdfb3231ce045b77404edd0449676a0a", 
      "name": "font_3_3.png", 
      "path": "sparrowhz/res/font_small_side/"
    }, 
    {
      "md5": "2dcdaf4cf6de953fd1cbbd4a676d7a32", 
      "name": "font_3_4.png", 
      "path": "sparrowhz/res/font_small_side/"
    }, 
    {
      "md5": "e5169f4e2cf4c2d07d96777316405257", 
      "name": "font_3_5.png", 
      "path": "sparrowhz/res/font_small_side/"
    }, 
    {
      "md5": "f5a9c384034f47e2e5e2d57fa54da8ee", 
      "name": "font_3_6.png", 
      "path": "sparrowhz/res/font_small_side/"
    }, 
    {
      "md5": "aa54fb40df921a928b7da76678595208", 
      "name": "font_3_7.png", 
      "path": "sparrowhz/res/font_small_side/"
    }, 
    {
      "md5": "fa5c7505b443ec1fb86eea6d1ce1d9b1", 
      "name": "shade_down.png", 
      "path": "sparrowhz/res/font_small_side/"
    }, 
    {
      "md5": "7b5c98a23993fb67ff9b05eea70ac37c", 
      "name": "round_body.ttf", 
      "path": "sparrowhz/res/fonts/"
    }, 
    {
      "md5": "ea6ba46720b1e209d03a6d56d137748d", 
      "name": "bg_02.jpg", 
      "path": "sparrowhz/res/game/"
    }, 
    {
      "md5": "cbae614562afc6422608be09d3ea6c42", 
      "name": "card_back_up.png", 
      "path": "sparrowhz/res/game/"
    }, 
    {
      "md5": "103866d9aa46504c04924af1d5ea7844", 
      "name": "card_left.png", 
      "path": "sparrowhz/res/game/"
    }, 
    {
      "md5": "ead45d369eaa87e71e270adee4bc3249", 
      "name": "card_right.png", 
      "path": "sparrowhz/res/game/"
    }, 
    {
      "md5": "b5f2bc3683b4b9fad5ce335dc5e0f581", 
      "name": "GameScene.csb", 
      "path": "sparrowhz/res/game/"
    }, 
    {
      "md5": "e8dc2e6e7807e3dc515d81854a5471d6", 
      "name": "Player.csb", 
      "path": "sparrowhz/res/game/"
    }, 
    {
      "md5": "0f61e1f8165d2c099105609954e94169", 
      "name": "sp_gameBtn_bg.png", 
      "path": "sparrowhz/res/game/"
    }, 
    {
      "md5": "f8511fdc36ecf4c2b7adbee38d2ca44d", 
      "name": "sp_listenBg_1.png", 
      "path": "sparrowhz/res/game/"
    }, 
    {
      "md5": "4b9c64b9236e40884d1324484dd5d99f", 
      "name": "sp_listenPromptFlag.png", 
      "path": "sparrowhz/res/game/"
    }, 
    {
      "md5": "ce125b3e74be5368dd3c467a038e4bbf", 
      "name": "sp_sparrowPlate.png", 
      "path": "sparrowhz/res/game/"
    }, 
    {
      "md5": "55627ae6001ca9df6039f439df061eb0", 
      "name": "sp_trusteeCover.png", 
      "path": "sparrowhz/res/game/"
    }, 
    {
      "md5": "d88879c63f3d7aab8de40f8903e7547f", 
      "name": "sp_trusteeMan.png", 
      "path": "sparrowhz/res/game/"
    }, 
    {
      "md5": "5a884c1ffdf4a5d253b67deb03db690f", 
      "name": "tag_ting_repeat.png", 
      "path": "sparrowhz/res/game/"
    }, 
    {
      "md5": "02fa20fd78d49a93480d91fc665d8f8d", 
      "name": "TrusteeCoverLayer.csb", 
      "path": "sparrowhz/res/game/"
    }, 
    {
      "md5": "b8c85023b97c5932daeed09ed8c977a6", 
      "name": "GameResultLayer.csb", 
      "path": "sparrowhz/res/gameResult/"
    }, 
    {
      "md5": "6c5bc52498df326718cdd625ef85a67d", 
      "name": "nodeUser.csb", 
      "path": "sparrowhz/res/gameResult/"
    }, 
    {
      "md5": "aa59b459d42952fd330ed21a487b5fa2", 
      "name": "num_lose.png", 
      "path": "sparrowhz/res/gameResult/"
    }, 
    {
      "md5": "2f0ef02cbc9f5fc364499fe0a73cd5ee", 
      "name": "num_win.png", 
      "path": "sparrowhz/res/gameResult/"
    }, 
    {
      "md5": "92bb91c0a32b323bbea247c3832f49c5", 
      "name": "sp_chooseFlag.png", 
      "path": "sparrowhz/res/gameResult/"
    }, 
    {
      "md5": "377bdbab7f21cc16c2e412a4ca0e945d", 
      "name": "sp_ziMo.png", 
      "path": "sparrowhz/res/gameResult/"
    }, 
    {
      "md5": "ffbccca7af717f92d68dba678c298cf0", 
      "name": "bg.jpg", 
      "path": "sparrowhz/res/gameResult/hzmj/"
    }, 
    {
      "md5": "724b92e6943dfb7672f2a16a490155a6", 
      "name": "fh.png", 
      "path": "sparrowhz/res/gameResult/hzmj/"
    }, 
    {
      "md5": "c2cce3b2cf0dd806ad908d586bbfbd71", 
      "name": "jxyx.png", 
      "path": "sparrowhz/res/gameResult/hzmj/"
    }, 
    {
      "md5": "a5b4db3dbf24a8df6fa66ad613d81238", 
      "name": "lose.png", 
      "path": "sparrowhz/res/gameResult/hzmj/"
    }, 
    {
      "md5": "ca9fd27d9e4909441eec277236736533", 
      "name": "mj_d.png", 
      "path": "sparrowhz/res/gameResult/hzmj/"
    }, 
    {
      "md5": "47e6fb95d86830fb09d0e5d273ec7e52", 
      "name": "ping.png", 
      "path": "sparrowhz/res/gameResult/hzmj/"
    }, 
    {
      "md5": "2216df8e85005685703dfb50107ad757", 
      "name": "top.png", 
      "path": "sparrowhz/res/gameResult/hzmj/"
    }, 
    {
      "md5": "650028e1c04afdc9b105f6d6e4ae0837", 
      "name": "win.png", 
      "path": "sparrowhz/res/gameResult/hzmj/"
    }, 
    {
      "md5": "f92a996ea613b3c29c0540ea59588b88", 
      "name": "icon_roomlist_0.png", 
      "path": "sparrowhz/res/roomlist/"
    }, 
    {
      "md5": "4a34ec30fa2f37705316beac17387a96", 
      "name": "icon_roomlist_1.png", 
      "path": "sparrowhz/res/roomlist/"
    }, 
    {
      "md5": "44177ee935ccba7aba32ae8273250277", 
      "name": "icon_roomlist_2.png", 
      "path": "sparrowhz/res/roomlist/"
    }, 
    {
      "md5": "b0e6c53706cbc1f89f4160c6cbf6ba32", 
      "name": "roomlist_title.png", 
      "path": "sparrowhz/res/roomlist/"
    }, 
    {
      "md5": "f81c93867c8062b00997d99b959d1449", 
      "name": "roomtable.png", 
      "path": "sparrowhz/res/roomlist/"
    }, 
    {
      "md5": "0d5796511a2904d5f7b6219ed9630924", 
      "name": "roomtable_play.png", 
      "path": "sparrowhz/res/roomlist/"
    }, 
    {
      "md5": "8f077bf251146fd62b735db6a8cc8900", 
      "name": "Rule.txt", 
      "path": "sparrowhz/res/roomlist/"
    }, 
    {
      "md5": "ebbe99542bedcf07be50dbc921f1d3d7", 
      "name": "BACK_PLAYING.wav", 
      "path": "sparrowhz/res/sound/"
    }, 
    {
      "md5": "ba95c34e0c6f09e8b26b2bba9c245d41", 
      "name": "DRAW_SICE.wav", 
      "path": "sparrowhz/res/sound/"
    }, 
    {
      "md5": "958e505c5be42507fe33d159e27a1f43", 
      "name": "GAME_START.wav", 
      "path": "sparrowhz/res/sound/"
    }, 
    {
      "md5": "046d22829644b47aaad332e8bbc76c42", 
      "name": "GAME_TRUSTEE.wav", 
      "path": "sparrowhz/res/sound/"
    }, 
    {
      "md5": "84a6693a087943c024171f60a9929ea5", 
      "name": "GAME_UNTRUSTEE.wav", 
      "path": "sparrowhz/res/sound/"
    }, 
    {
      "md5": "60879d23a8ba78db6b33fb3057ded065", 
      "name": "GAME_WARN.wav", 
      "path": "sparrowhz/res/sound/"
    }, 
    {
      "md5": "24d0b40c827d7ce7503f68d4ecbaca71", 
      "name": "OUT_CARD.wav", 
      "path": "sparrowhz/res/sound/"
    }, 
    {
      "md5": "89a1184a45701b1f8ea13768d7b74ef3", 
      "name": "PACK_CARD.wav", 
      "path": "sparrowhz/res/sound/"
    }, 
    {
      "md5": "d8a1a8a4f377dfc8508cd1459576cca7", 
      "name": "SEND_CARD.wav", 
      "path": "sparrowhz/res/sound/"
    }, 
    {
      "md5": "2d9d52c855490d2095e325e4b89e6b06", 
      "name": "ZIMO_LOSE.wav", 
      "path": "sparrowhz/res/sound/"
    }, 
    {
      "md5": "4bdc5f42ba9117b7b5f4c609f0f958ae", 
      "name": "ZIMO_WIN.wav", 
      "path": "sparrowhz/res/sound/"
    }, 
    {
      "md5": "1142c62a0cae193e58e6ed9a1b8ca032", 
      "name": "CHI.wav", 
      "path": "sparrowhz/res/sound/BOY/"
    }, 
    {
      "md5": "f6fe868feaebe12dd2bd677422f5b943", 
      "name": "CHI_HU.wav", 
      "path": "sparrowhz/res/sound/BOY/"
    }, 
    {
      "md5": "8f041cabb9816658f28e3f26918dcf64", 
      "name": "F_1.wav", 
      "path": "sparrowhz/res/sound/BOY/"
    }, 
    {
      "md5": "0375d47effb7c0a85a7d693f76aec998", 
      "name": "F_2.wav", 
      "path": "sparrowhz/res/sound/BOY/"
    }, 
    {
      "md5": "cd502a89aa98b0d602ae69f8cb6d695a", 
      "name": "F_3.wav", 
      "path": "sparrowhz/res/sound/BOY/"
    }, 
    {
      "md5": "e9c4001f58c40edfd3e6022b07947eb8", 
      "name": "F_4.wav", 
      "path": "sparrowhz/res/sound/BOY/"
    }, 
    {
      "md5": "b30f848e1d01f33238798b728c2f0da2", 
      "name": "F_5.wav", 
      "path": "sparrowhz/res/sound/BOY/"
    }, 
    {
      "md5": "849d1a87880eb455fb032a822d9766b9", 
      "name": "F_6.wav", 
      "path": "sparrowhz/res/sound/BOY/"
    }, 
    {
      "md5": "d48e13ec698b6cbb1bb8665237063d82", 
      "name": "F_7.wav", 
      "path": "sparrowhz/res/sound/BOY/"
    }, 
    {
      "md5": "7b915544738067699c29872e3cd63a70", 
      "name": "GANG.wav", 
      "path": "sparrowhz/res/sound/BOY/"
    }, 
    {
      "md5": "39e6d8c67c83d0c7caa6837739dbecf7", 
      "name": "PENG.wav", 
      "path": "sparrowhz/res/sound/BOY/"
    }, 
    {
      "md5": "eeb849af63443adec70f73a235534552", 
      "name": "REPLACE.wav", 
      "path": "sparrowhz/res/sound/BOY/"
    }, 
    {
      "md5": "29772faa53fac36c418b77ae4fde9be3", 
      "name": "S_1.wav", 
      "path": "sparrowhz/res/sound/BOY/"
    }, 
    {
      "md5": "9cade28951848c47cde50e786279a115", 
      "name": "S_2.wav", 
      "path": "sparrowhz/res/sound/BOY/"
    }, 
    {
      "md5": "f8ef96efc14c568b51f316c6c9f794b0", 
      "name": "S_3.wav", 
      "path": "sparrowhz/res/sound/BOY/"
    }, 
    {
      "md5": "856b7dc264e1c8352513b6a19d5de622", 
      "name": "S_4.wav", 
      "path": "sparrowhz/res/sound/BOY/"
    }, 
    {
      "md5": "1d48e42b56869e6b82b548076e620bdf", 
      "name": "S_5.wav", 
      "path": "sparrowhz/res/sound/BOY/"
    }, 
    {
      "md5": "6e611497c9dbca77fff1e3ae7f0407b7", 
      "name": "S_6.wav", 
      "path": "sparrowhz/res/sound/BOY/"
    }, 
    {
      "md5": "86662db99dcc6c544fa4df8e3b330342", 
      "name": "S_7.wav", 
      "path": "sparrowhz/res/sound/BOY/"
    }, 
    {
      "md5": "d17557b05737fa0fb32e7c90c09d5e21", 
      "name": "S_8.wav", 
      "path": "sparrowhz/res/sound/BOY/"
    }, 
    {
      "md5": "a34f65448e1800c17ddbfe220adde504", 
      "name": "S_9.wav", 
      "path": "sparrowhz/res/sound/BOY/"
    }, 
    {
      "md5": "2c9397817ff35658cfaa89c8fab603ce", 
      "name": "T_1.wav", 
      "path": "sparrowhz/res/sound/BOY/"
    }, 
    {
      "md5": "2721810a48cf073c29ea8fac9b3ed0c2", 
      "name": "T_2.wav", 
      "path": "sparrowhz/res/sound/BOY/"
    }, 
    {
      "md5": "3724594dde3cfadb661be60a58645174", 
      "name": "T_3.wav", 
      "path": "sparrowhz/res/sound/BOY/"
    }, 
    {
      "md5": "82db97612719c1f9db0cde0741c87571", 
      "name": "T_4.wav", 
      "path": "sparrowhz/res/sound/BOY/"
    }, 
    {
      "md5": "24186eb2186c7d42db5e1bf24418606c", 
      "name": "T_5.wav", 
      "path": "sparrowhz/res/sound/BOY/"
    }, 
    {
      "md5": "1657415b565f3ff50c97f66b3a00820e", 
      "name": "T_6.wav", 
      "path": "sparrowhz/res/sound/BOY/"
    }, 
    {
      "md5": "4eaf0a5e14d00d4db28455b517573cf2", 
      "name": "T_7.wav", 
      "path": "sparrowhz/res/sound/BOY/"
    }, 
    {
      "md5": "03f891b0ac25c95d8d076da3aa8141bc", 
      "name": "T_8.wav", 
      "path": "sparrowhz/res/sound/BOY/"
    }, 
    {
      "md5": "e0bdf6d6f91ef931f7ae0c64730397f4", 
      "name": "T_9.wav", 
      "path": "sparrowhz/res/sound/BOY/"
    }, 
    {
      "md5": "56b02c0918f0a08a412b8c13c794e0a7", 
      "name": "TING.wav", 
      "path": "sparrowhz/res/sound/BOY/"
    }, 
    {
      "md5": "0c7b8a66b77ff2524d16fded8a10bd5e", 
      "name": "W_1.wav", 
      "path": "sparrowhz/res/sound/BOY/"
    }, 
    {
      "md5": "26853afe1315b07a66546b2ac489885d", 
      "name": "W_2.wav", 
      "path": "sparrowhz/res/sound/BOY/"
    }, 
    {
      "md5": "fe7fdcfb68e0a595a839aa5c79a82e4f", 
      "name": "W_3.wav", 
      "path": "sparrowhz/res/sound/BOY/"
    }, 
    {
      "md5": "12ad8a986600b1602d2c9c97a1b94541", 
      "name": "W_4.wav", 
      "path": "sparrowhz/res/sound/BOY/"
    }, 
    {
      "md5": "c21adb61c8523847f1702f57dbbbea6a", 
      "name": "W_5.wav", 
      "path": "sparrowhz/res/sound/BOY/"
    }, 
    {
      "md5": "2fcc8adb0e59b99e1397ab879eae6a84", 
      "name": "W_6.wav", 
      "path": "sparrowhz/res/sound/BOY/"
    }, 
    {
      "md5": "3a6d6dbfb639fa2604d3c0f190df1331", 
      "name": "W_7.wav", 
      "path": "sparrowhz/res/sound/BOY/"
    }, 
    {
      "md5": "6a9b45c55eb19e9e6d1c2a4d6d19fa0a", 
      "name": "W_8.wav", 
      "path": "sparrowhz/res/sound/BOY/"
    }, 
    {
      "md5": "ec0980c962e8b5c9953bb2aecb42036c", 
      "name": "W_9.wav", 
      "path": "sparrowhz/res/sound/BOY/"
    }, 
    {
      "md5": "fc90bf0ae1528f4a735fe1d64d959d1d", 
      "name": "CHI.wav", 
      "path": "sparrowhz/res/sound/GIRL/"
    }, 
    {
      "md5": "7823214a5016077a3d6960f03800570b", 
      "name": "CHI_HU.wav", 
      "path": "sparrowhz/res/sound/GIRL/"
    }, 
    {
      "md5": "8a06e7b67b015272b88c829b7ec825f8", 
      "name": "F_1.wav", 
      "path": "sparrowhz/res/sound/GIRL/"
    }, 
    {
      "md5": "75299a27f3b149eef9992944769b6624", 
      "name": "F_2.wav", 
      "path": "sparrowhz/res/sound/GIRL/"
    }, 
    {
      "md5": "1b182c52093d6ce6e1b9ffe2a1d374da", 
      "name": "F_3.wav", 
      "path": "sparrowhz/res/sound/GIRL/"
    }, 
    {
      "md5": "e9ad334caa6ff1ab1b3dc3ad943158c3", 
      "name": "F_4.wav", 
      "path": "sparrowhz/res/sound/GIRL/"
    }, 
    {
      "md5": "f11aa38800751b49101bc5cc6d517e0a", 
      "name": "F_5.wav", 
      "path": "sparrowhz/res/sound/GIRL/"
    }, 
    {
      "md5": "f4f46292d8db622744508e531b4be05b", 
      "name": "F_6.wav", 
      "path": "sparrowhz/res/sound/GIRL/"
    }, 
    {
      "md5": "1eb3b914a7bd36cc140bcfd3c0f2035b", 
      "name": "F_7.wav", 
      "path": "sparrowhz/res/sound/GIRL/"
    }, 
    {
      "md5": "9dc8db2da139fcceeca5ae4e628f2b5d", 
      "name": "GANG.wav", 
      "path": "sparrowhz/res/sound/GIRL/"
    }, 
    {
      "md5": "1e23ebbfae77eb74af91f97c7b6fafbb", 
      "name": "PENG.wav", 
      "path": "sparrowhz/res/sound/GIRL/"
    }, 
    {
      "md5": "edc9e6d6db21710f1ccbc02d361ad0c9", 
      "name": "REPLACE.wav", 
      "path": "sparrowhz/res/sound/GIRL/"
    }, 
    {
      "md5": "c4eb25014dc488624edfc3a551b0ec56", 
      "name": "S_1.wav", 
      "path": "sparrowhz/res/sound/GIRL/"
    }, 
    {
      "md5": "668757e17bfd33377ac4fb3d6932cf24", 
      "name": "S_2.wav", 
      "path": "sparrowhz/res/sound/GIRL/"
    }, 
    {
      "md5": "376b49332a7c9371f98de203a7cd5045", 
      "name": "S_3.wav", 
      "path": "sparrowhz/res/sound/GIRL/"
    }, 
    {
      "md5": "d7e260d54ae54c647a4658ce69678ca0", 
      "name": "S_4.wav", 
      "path": "sparrowhz/res/sound/GIRL/"
    }, 
    {
      "md5": "3d32b715884e84c78e6bbb96df0e5d71", 
      "name": "S_5.wav", 
      "path": "sparrowhz/res/sound/GIRL/"
    }, 
    {
      "md5": "834404c036074857f8f61958291f107d", 
      "name": "S_6.wav", 
      "path": "sparrowhz/res/sound/GIRL/"
    }, 
    {
      "md5": "fbf363a4b9c9c81747eb0b82a1da1d3c", 
      "name": "S_7.wav", 
      "path": "sparrowhz/res/sound/GIRL/"
    }, 
    {
      "md5": "94597d604bc6cdc4f193c2d0bc278040", 
      "name": "S_8.wav", 
      "path": "sparrowhz/res/sound/GIRL/"
    }, 
    {
      "md5": "c74c3e9dd4ddbae8a5ca3e6b2f80b2be", 
      "name": "S_9.wav", 
      "path": "sparrowhz/res/sound/GIRL/"
    }, 
    {
      "md5": "22f57697021d30b4b0a71ad88a6912c4", 
      "name": "T_1.wav", 
      "path": "sparrowhz/res/sound/GIRL/"
    }, 
    {
      "md5": "d28552bc3e2a08c2e862e7d242c1976c", 
      "name": "T_2.wav", 
      "path": "sparrowhz/res/sound/GIRL/"
    }, 
    {
      "md5": "a4b4cd0f6f472e92f7cd50c2b6550d96", 
      "name": "T_3.wav", 
      "path": "sparrowhz/res/sound/GIRL/"
    }, 
    {
      "md5": "65f30cb4596084ff834ab8a1d4644bd6", 
      "name": "T_4.wav", 
      "path": "sparrowhz/res/sound/GIRL/"
    }, 
    {
      "md5": "92c939c246efaa21f7d32ac1c72ef429", 
      "name": "T_5.wav", 
      "path": "sparrowhz/res/sound/GIRL/"
    }, 
    {
      "md5": "7b4b4f4f3a2d3d036a6bfe0934648bfc", 
      "name": "T_6.wav", 
      "path": "sparrowhz/res/sound/GIRL/"
    }, 
    {
      "md5": "0c42abffc9510a63c14bea10e45e35d7", 
      "name": "T_7.wav", 
      "path": "sparrowhz/res/sound/GIRL/"
    }, 
    {
      "md5": "5ac7b6dd65779747b8bbc3fbba157f3f", 
      "name": "T_8.wav", 
      "path": "sparrowhz/res/sound/GIRL/"
    }, 
    {
      "md5": "928ef32e00d300a27b1d3a287cddbdb1", 
      "name": "T_9.wav", 
      "path": "sparrowhz/res/sound/GIRL/"
    }, 
    {
      "md5": "94678ebf4ad6ad7f6d4a321615291f5d", 
      "name": "TING.wav", 
      "path": "sparrowhz/res/sound/GIRL/"
    }, 
    {
      "md5": "65666ec314141d0fbd2c0f2550b01f46", 
      "name": "W_1.wav", 
      "path": "sparrowhz/res/sound/GIRL/"
    }, 
    {
      "md5": "d970107b530f4bc1927c69994e03336a", 
      "name": "W_2.wav", 
      "path": "sparrowhz/res/sound/GIRL/"
    }, 
    {
      "md5": "2c1d6e563d25944ca23e0e0ed55e67a6", 
      "name": "W_3.wav", 
      "path": "sparrowhz/res/sound/GIRL/"
    }, 
    {
      "md5": "4ce3f9745a30562c07439b0475be069e", 
      "name": "W_4.wav", 
      "path": "sparrowhz/res/sound/GIRL/"
    }, 
    {
      "md5": "8e0d89bbf9f031a3f4729f9b39f9e7c8", 
      "name": "W_5.wav", 
      "path": "sparrowhz/res/sound/GIRL/"
    }, 
    {
      "md5": "863905cea6625a4b349cc62b398c3def", 
      "name": "W_6.wav", 
      "path": "sparrowhz/res/sound/GIRL/"
    }, 
    {
      "md5": "8d107dffb3b1ceea65045f7e349e6fd8", 
      "name": "W_7.wav", 
      "path": "sparrowhz/res/sound/GIRL/"
    }, 
    {
      "md5": "81381a86823281d07d62a43d52b62a64", 
      "name": "W_8.wav", 
      "path": "sparrowhz/res/sound/GIRL/"
    }, 
    {
      "md5": "2c4bf8d1980107303bdad39522329109", 
      "name": "W_9.wav", 
      "path": "sparrowhz/res/sound/GIRL/"
    }, 
    {
      "md5": "4507a322828458b2023ad315273c2bd7", 
      "name": "6603000.wav", 
      "path": "sparrowhz/res/sound/PhraseVoice/BOY/"
    }, 
    {
      "md5": "85141882402eebc73c8b2ea7ebe8f40f", 
      "name": "6603001.wav", 
      "path": "sparrowhz/res/sound/PhraseVoice/BOY/"
    }, 
    {
      "md5": "78067824a74416c81eef03990ddedb99", 
      "name": "6603002.wav", 
      "path": "sparrowhz/res/sound/PhraseVoice/BOY/"
    }, 
    {
      "md5": "4a6566112c07d9d84b96c45d5a1a6090", 
      "name": "6603003.wav", 
      "path": "sparrowhz/res/sound/PhraseVoice/BOY/"
    }, 
    {
      "md5": "28896e361663735e3efd8b2afa1d2a0f", 
      "name": "6603004.wav", 
      "path": "sparrowhz/res/sound/PhraseVoice/BOY/"
    }, 
    {
      "md5": "f752b19c0225e704dc4fcb8988e7d40e", 
      "name": "6603005.wav", 
      "path": "sparrowhz/res/sound/PhraseVoice/BOY/"
    }, 
    {
      "md5": "3140ca3d2538cc44789efc5ed73028ec", 
      "name": "6603006.wav", 
      "path": "sparrowhz/res/sound/PhraseVoice/BOY/"
    }, 
    {
      "md5": "819d9ce1c3f22eccd0394d62b575c04b", 
      "name": "6603000.wav", 
      "path": "sparrowhz/res/sound/PhraseVoice/GIRL/"
    }, 
    {
      "md5": "592fd4243c73e1493f230bb1ddfbe545", 
      "name": "6603001.wav", 
      "path": "sparrowhz/res/sound/PhraseVoice/GIRL/"
    }, 
    {
      "md5": "b12aaa201ae1cdb1a25cd671e2e6d144", 
      "name": "6603002.wav", 
      "path": "sparrowhz/res/sound/PhraseVoice/GIRL/"
    }, 
    {
      "md5": "81d80b6d22f929a4c24a45caacf19383", 
      "name": "6603003.wav", 
      "path": "sparrowhz/res/sound/PhraseVoice/GIRL/"
    }, 
    {
      "md5": "8619682fe3c6d71a453e118b37363d38", 
      "name": "6603004.wav", 
      "path": "sparrowhz/res/sound/PhraseVoice/GIRL/"
    }, 
    {
      "md5": "643ebcf26da8fd3848011e6ef21543d4", 
      "name": "6603005.wav", 
      "path": "sparrowhz/res/sound/PhraseVoice/GIRL/"
    }, 
    {
      "md5": "de02198d1175e72f6ea44d406da66115", 
      "name": "6603006.wav", 
      "path": "sparrowhz/res/sound/PhraseVoice/GIRL/"
    }, 
    {
      "md5": "f3471844947d443f6afcd7147674941e", 
      "name": "CMD_Game.luac", 
      "path": "sparrowhz/src/models/"
    }, 
    {
      "md5": "4f598c0db48e11c94f4bef787e538519", 
      "name": "GameLogic.luac", 
      "path": "sparrowhz/src/models/"
    }, 
    {
      "md5": "a46acd2623e9dc81b1735df5ba4c7175", 
      "name": "Toolsfunction.luac", 
      "path": "sparrowhz/src/tools/"
    }, 
    {
      "md5": "072e7578d3578db4b4e09b6041d9871d", 
      "name": "GameLayer.luac", 
      "path": "sparrowhz/src/views/"
    }, 
    {
      "md5": "4c293806b071e531213a4e1b57a36a9d", 
      "name": "GameRoomLayer.luac", 
      "path": "sparrowhz/src/views/"
    }, 
    {
      "md5": "02ce9a56d4af422cd07f6e2e888dcb60", 
      "name": "GameRoomListLayer.luac", 
      "path": "sparrowhz/src/views/"
    }, 
    {
      "md5": "1c4302b7bec1ece11015aed7a5288383", 
      "name": "CardLayer.luac", 
      "path": "sparrowhz/src/views/layer/"
    }, 
    {
      "md5": "a18ad7530315daa1650fbb4c62f04baf", 
      "name": "GameViewLayer.luac", 
      "path": "sparrowhz/src/views/layer/"
    }, 
    {
      "md5": "150cc75dce503eaf37675e43bbbe40e2", 
      "name": "ResultLayer.luac", 
      "path": "sparrowhz/src/views/layer/"
    }, 
    {
      "allcount": 322
    }
  ]
}